digraph G {
  subgraph modules {
    style=filled;
    node [color=green, regular=true];
    label = "node modules";
  }
  subgraph public {
    node [style=filled, regular=true];
    label = "public";
    color=green;
    "f-utility/f-utility.js";
    "entrust/entrust.js";
    "fantasy-eithers/fantasy-eithers.js";
    "ramda/src/chain.js";
  }
  "assertions/all-props-are-functions.js";
  "assertions/judge-object.js";
  "assertions/reject-non-functions.js";
  "either/ap.js";
  "either/assert.js";
  "either/bimap.js";
  "either/fold.js";
  "either/guided-left.js";
  "either/guided.js";
  "either/guided-right.js";
  "either/index.js";
  "errors/expect-function-props.js";
  "guiderail.js";
  "multirail.js";
  "rail.js";
  "handrail.js";
  "handrail";
  "assertions/all-props-are-functions.js" -> "f-utility/f-utility.js";
  "assertions/judge-object.js" -> "f-utility/f-utility.js";
  "assertions/reject-non-functions.js" -> "f-utility/f-utility.js";
  "either/ap.js" -> "entrust/entrust.js";
  "either/assert.js" -> "f-utility/f-utility.js";
  "either/bimap.js" -> "entrust/entrust.js";
  "either/fold.js" -> "entrust/entrust.js";
  "either/guided-left.js" -> "fantasy-eithers/fantasy-eithers.js";
  "either/guided-left.js" -> "either/guided.js";
  "either/guided-right.js" -> "fantasy-eithers/fantasy-eithers.js";
  "either/guided-right.js" -> "either/guided.js";
  "either/guided.js" -> "f-utility/f-utility.js";
  "either/guided.js" -> "either/assert.js";
  "either/index.js" -> "either/ap.js";
  "either/index.js" -> "either/bimap.js";
  "either/index.js" -> "either/fold.js";
  "either/index.js" -> "either/guided-left.js";
  "either/index.js" -> "either/guided-right.js";
  "either/index.js" -> "either/guided.js";
  "errors/expect-function-props.js" -> "f-utility/f-utility.js";
  "guiderail.js" -> "f-utility/f-utility.js";
  "guiderail.js" -> "multirail.js";
  "guiderail.js" -> "rail.js";
  "handrail.js" -> "f-utility/f-utility.js";
  "handrail.js" -> "assertions/all-props-are-functions.js";
  "handrail.js" -> "assertions/judge-object.js";
  "handrail.js" -> "assertions/reject-non-functions.js";
  "handrail.js" -> "errors/expect-function-props.js";
  "handrail.js" -> "multirail.js";
  "handrail.js" -> "rail.js";
  "handrail" -> "f-utility/f-utility.js";
  "handrail" -> "ramda/src/chain.js";
  "handrail" -> "either/assert.js";
  "handrail" -> "either/fold.js";
  "handrail" -> "either/index.js";
  "handrail" -> "guiderail.js";
  "handrail" -> "handrail.js";
  "handrail" -> "multirail.js";
  "handrail" -> "rail.js";
  "multirail.js" -> "f-utility/f-utility.js";
  "multirail.js" -> "ramda/src/chain.js";
  "multirail.js" -> "rail.js";
  "rail.js" -> "f-utility/f-utility.js";
  "rail.js" -> "assertions/reject-non-functions.js";
  "rail.js" -> "either/guided-left.js";
  "rail.js" -> "either/guided-right.js";
  "rail.js" -> "errors/expect-function-props.js";
}
